…
We can now use these parameters to simulate some data using the `simulate_population()` function.


```r
#Tip: Assign this function to an object so you have access to the data
data <- simulate_population(pars)

data
#> # A tibble: 387 × 10
#>    time_birth time_end   age size_birth growth_rate mortality_rate  size
#>         <dbl>    <dbl> <dbl>      <dbl>       <dbl>          <dbl> <dbl>
#>  1       2.00       25  23.0          3        0.21           0.25  7.83
#>  2       3.88       25  21.1          3        0.21           0.25  7.44
#>  3       5.55       25  19.5          3        0.21           0.25  7.09
#>  4       5.70       25  19.3          3        0.21           0.25  7.05
#>  5       7.52       25  17.5          3        0.21           0.25  6.67
#>  6       7.75       25  17.3          3        0.21           0.25  6.62
#>  7       8.11       25  16.9          3        0.21           0.25  6.55
#>  8       8.38       25  16.6          3        0.21           0.25  6.49
#>  9       8.72       25  16.3          3        0.21           0.25  6.42
#> 10       8.94       25  16.1          3        0.21           0.25  6.37
#> # ℹ 377 more rows
#> # ℹ 3 more variables: cumulative_hazard <dbl>, survival <dbl>, is_dead <lgl>
```
…
### Creating binned data for size

In order to estimate a distribution for size/age in our models, we need  to create bins or 'class intervals' for these variables and tally up the number of observations that fall into each of these bins. The `summarise_bin_counts()` function will do the trick!


```r
# Compute bins for age
age_data <- data %>% summarise_bin_counts(bin_var = age,
                                          bin_width = 1)

age_data
#> # A tibble: 24 × 4
#>    binned_var bin_lower bin_upper counts
#>         <dbl>     <dbl>     <dbl>  <int>
#>  1          0       0         0.5     48
#>  2          1       0.5       1.5     74
#>  3          2       1.5       2.5     65
#>  4          3       2.5       3.5     43
#>  5          4       3.5       4.5     28
#>  6          5       4.5       5.5     24
#>  7          6       5.5       6.5     26
#>  8          7       6.5       7.5     22
#>  9          8       7.5       8.5     10
#> 10          9       8.5       9.5     10
#> # ℹ 14 more rows
```
…
pars
#> NULL
```

We can now use these parameters to simulate some data using the `simulate_population()` function.


```r
data <- simulate_population(pars)
#> Error in switch(prefix, model1 = sample_individual_variation_model1(n, : EXPR must be a length 1 vector

data
#> # A tibble: 387 × 10
#>    time_birth time_end   age size_birth growth_rate mortality_rate  size
#>         <dbl>    <dbl> <dbl>      <dbl>       <dbl>          <dbl> <dbl>
#>  1       2.00       25  23.0          3        0.21           0.25  7.83
#>  2       3.88       25  21.1          3        0.21           0.25  7.44
#>  3       5.55       25  19.5          3        0.21           0.25  7.09
#>  4       5.70       25  19.3          3        0.21           0.25  7.05
#>  5       7.52       25  17.5          3        0.21           0.25  6.67
#>  6       7.75       25  17.3          3        0.21           0.25  6.62
#>  7       8.11       25  16.9          3        0.21           0.25  6.55
#>  8       8.38       25  16.6          3        0.21           0.25  6.49
#>  9       8.72       25  16.3          3        0.21           0.25  6.42
#> 10       8.94       25  16.1          3        0.21           0.25  6.37
#> # ℹ 377 more rows
#> # ℹ 3 more variables: cumulative_hazard <dbl>, survival <dbl>, is_dead <lgl>
```
…
